
heivia.png
size: 1024,256
format: RGBA8888
filter: Linear,Linear
repeat: none
02
  rotate: false
  xy: 231, 128
  size: 193, 126
  orig: 193, 126
  offset: 0, 0
  index: -1
03
  rotate: true
  xy: 2, 11
  size: 51, 90
  orig: 51, 90
  offset: 0, 0
  index: -1
04
  rotate: false
  xy: 2, 64
  size: 227, 190
  orig: 227, 190
  offset: 0, 0
  index: -1
11
  rotate: true
  xy: 94, 19
  size: 43, 56
  orig: 43, 56
  offset: 0, 0
  index: -1
1111
  rotate: true
  xy: 985, 219
  size: 35, 37
  orig: 35, 37
  offset: 0, 0
  index: -1
1113
  rotate: true
  xy: 383, 90
  size: 36, 41
  orig: 36, 41
  offset: 0, 0
  index: -1
1114
  rotate: false
  xy: 277, 56
  size: 33, 31
  orig: 33, 31
  offset: 0, 0
  index: -1
12
  rotate: false
  xy: 647, 161
  size: 83, 93
  orig: 83, 93
  offset: 0, 0
  index: -1
14
  rotate: true
  xy: 771, 168
  size: 26, 38
  orig: 26, 38
  offset: 0, 0
  index: -1
20
  rotate: true
  xy: 865, 195
  size: 29, 16
  orig: 29, 16
  offset: 0, 0
  index: -1
21
  rotate: false
  xy: 94, 2
  size: 25, 15
  orig: 25, 15
  offset: 0, 0
  index: -1
22
  rotate: false
  xy: 313, 90
  size: 23, 6
  orig: 23, 6
  offset: 0, 0
  index: -1
221
  rotate: true
  xy: 633, 125
  size: 13, 8
  orig: 13, 8
  offset: 0, 0
  index: -1
2221
  rotate: false
  xy: 935, 215
  size: 48, 39
  orig: 48, 39
  offset: 0, 0
  index: -1
2223
  rotate: false
  xy: 580, 94
  size: 51, 44
  orig: 51, 44
  offset: 0, 0
  index: -1
2224
  rotate: false
  xy: 231, 56
  size: 44, 31
  orig: 44, 31
  offset: 0, 0
  index: -1
23
  rotate: false
  xy: 426, 107
  size: 152, 147
  orig: 152, 147
  offset: 0, 0
  index: -1
26
  rotate: true
  xy: 813, 190
  size: 34, 50
  orig: 34, 50
  offset: 0, 0
  index: -1
27
  rotate: false
  xy: 771, 196
  size: 40, 58
  orig: 40, 58
  offset: 0, 0
  index: -1
30
  rotate: false
  xy: 580, 140
  size: 65, 114
  orig: 65, 114
  offset: 0, 0
  index: -1
31
  rotate: true
  xy: 883, 220
  size: 34, 50
  orig: 34, 50
  offset: 0, 0
  index: -1
32
  rotate: true
  xy: 152, 22
  size: 40, 58
  orig: 40, 58
  offset: 0, 0
  index: -1
34
  rotate: true
  xy: 313, 98
  size: 28, 68
  orig: 28, 68
  offset: 0, 0
  index: -1
35
  rotate: true
  xy: 231, 89
  size: 37, 80
  orig: 37, 80
  offset: 0, 0
  index: -1
37
  rotate: true
  xy: 813, 226
  size: 28, 68
  orig: 28, 68
  offset: 0, 0
  index: -1
38
  rotate: false
  xy: 732, 178
  size: 37, 76
  orig: 37, 76
  offset: 0, 0
  index: -1
5
  rotate: false
  xy: 647, 143
  size: 58, 16
  orig: 58, 16
  offset: 0, 0
  index: -1
