
ryuji.png
size: 512,256
format: RGBA8888
filter: Linear,Linear
repeat: none
1
  rotate: false
  xy: 2, 92
  size: 178, 162
  orig: 178, 162
  offset: 0, 0
  index: -1
10
  rotate: true
  xy: 267, 37
  size: 30, 48
  orig: 30, 48
  offset: 0, 0
  index: -1
11
  rotate: true
  xy: 336, 70
  size: 71, 95
  orig: 71, 95
  offset: 0, 0
  index: -1
1113
  rotate: true
  xy: 469, 105
  size: 36, 41
  orig: 36, 41
  offset: 0, 0
  index: -1
1114
  rotate: true
  xy: 262, 2
  size: 33, 31
  orig: 33, 31
  offset: 0, 0
  index: -1
12
  rotate: false
  xy: 226, 9
  size: 34, 50
  orig: 34, 50
  offset: 0, 0
  index: -1
13
  rotate: true
  xy: 317, 37
  size: 30, 48
  orig: 30, 48
  offset: 0, 0
  index: -1
14
  rotate: false
  xy: 154, 22
  size: 28, 68
  orig: 28, 68
  offset: 0, 0
  index: -1
15
  rotate: false
  xy: 433, 61
  size: 34, 80
  orig: 34, 80
  offset: 0, 0
  index: -1
16
  rotate: false
  xy: 184, 37
  size: 28, 68
  orig: 28, 68
  offset: 0, 0
  index: -1
17
  rotate: false
  xy: 118, 16
  size: 34, 74
  orig: 34, 74
  offset: 0, 0
  index: -1
18
  rotate: true
  xy: 336, 143
  size: 111, 148
  orig: 111, 148
  offset: 0, 0
  index: -1
19
  rotate: true
  xy: 2, 6
  size: 17, 75
  orig: 17, 75
  offset: 0, 0
  index: -1
2
  rotate: true
  xy: 486, 166
  size: 88, 24
  orig: 88, 24
  offset: 0, 0
  index: -1
20
  rotate: true
  xy: 2, 25
  size: 65, 114
  orig: 65, 114
  offset: 0, 0
  index: -1
22
  rotate: true
  xy: 262, 55
  size: 4, 3
  orig: 4, 3
  offset: 0, 0
  index: -1
221
  rotate: false
  xy: 321, 97
  size: 13, 8
  orig: 13, 8
  offset: 0, 0
  index: -1
2223
  rotate: false
  xy: 214, 61
  size: 51, 44
  orig: 51, 44
  offset: 0, 0
  index: -1
2224
  rotate: false
  xy: 295, 4
  size: 44, 31
  orig: 44, 31
  offset: 0, 0
  index: -1
3
  rotate: false
  xy: 184, 2
  size: 40, 33
  orig: 40, 33
  offset: 0, 0
  index: -1
4
  rotate: false
  xy: 267, 69
  size: 52, 36
  orig: 52, 36
  offset: 0, 0
  index: -1
5
  rotate: false
  xy: 101, 15
  size: 15, 8
  orig: 15, 8
  offset: 0, 0
  index: -1
6
  rotate: false
  xy: 101, 15
  size: 15, 8
  orig: 15, 8
  offset: 0, 0
  index: -1
7
  rotate: false
  xy: 79, 17
  size: 20, 6
  orig: 20, 6
  offset: 0, 0
  index: -1
8
  rotate: false
  xy: 182, 107
  size: 152, 147
  orig: 152, 147
  offset: 0, 0
  index: -1
9
  rotate: false
  xy: 469, 53
  size: 34, 50
  orig: 34, 50
  offset: 0, 0
  index: -1
