
enjyu.png
size: 1024,256
format: RGBA8888
filter: Linear,Linear
repeat: none
1
  rotate: true
  xy: 2, 5
  size: 60, 118
  orig: 60, 118
  offset: 0, 0
  index: -1
1113
  rotate: false
  xy: 449, 23
  size: 36, 41
  orig: 36, 41
  offset: 0, 0
  index: -1
1114
  rotate: false
  xy: 537, 37
  size: 33, 31
  orig: 33, 31
  offset: 0, 0
  index: -1
14
  rotate: true
  xy: 925, 98
  size: 36, 42
  orig: 36, 42
  offset: 0, 0
  index: -1
22
  rotate: false
  xy: 290, 2
  size: 29, 16
  orig: 29, 16
  offset: 0, 0
  index: -1
220
  rotate: true
  xy: 1019, 250
  size: 4, 3
  orig: 4, 3
  offset: 0, 0
  index: -1
221
  rotate: false
  xy: 635, 96
  size: 13, 8
  orig: 13, 8
  offset: 0, 0
  index: -1
2223
  rotate: false
  xy: 344, 20
  size: 51, 44
  orig: 51, 44
  offset: 0, 0
  index: -1
2224
  rotate: false
  xy: 969, 97
  size: 44, 31
  orig: 44, 31
  offset: 0, 0
  index: -1
23
  rotate: true
  xy: 613, 49
  size: 25, 15
  orig: 25, 15
  offset: 0, 0
  index: -1
26
  rotate: false
  xy: 321, 3
  size: 20, 15
  orig: 20, 15
  offset: 0, 0
  index: -1
28
  rotate: false
  xy: 651, 107
  size: 152, 147
  orig: 152, 147
  offset: 0, 0
  index: -1
3
  rotate: true
  xy: 2, 154
  size: 100, 289
  orig: 100, 289
  offset: 0, 0
  index: -1
30
  rotate: true
  xy: 234, 5
  size: 60, 54
  orig: 60, 54
  offset: 0, 0
  index: -1
32
  rotate: true
  xy: 572, 39
  size: 35, 39
  orig: 35, 39
  offset: 0, 0
  index: -1
34
  rotate: true
  xy: 397, 30
  size: 34, 50
  orig: 34, 50
  offset: 0, 0
  index: -1
37
  rotate: true
  xy: 875, 104
  size: 30, 48
  orig: 30, 48
  offset: 0, 0
  index: -1
39
  rotate: false
  xy: 805, 136
  size: 90, 118
  orig: 90, 118
  offset: 0, 0
  index: -1
44
  rotate: true
  xy: 122, 3
  size: 62, 110
  orig: 62, 110
  offset: 0, 0
  index: -1
45
  rotate: true
  xy: 572, 2
  size: 35, 39
  orig: 35, 39
  offset: 0, 0
  index: -1
47
  rotate: false
  xy: 969, 130
  size: 34, 50
  orig: 34, 50
  offset: 0, 0
  index: -1
5
  rotate: false
  xy: 293, 66
  size: 188, 188
  orig: 188, 188
  offset: 0, 0
  index: -1
50
  rotate: true
  xy: 487, 38
  size: 30, 48
  orig: 30, 48
  offset: 0, 0
  index: -1
52
  rotate: true
  xy: 565, 76
  size: 28, 68
  orig: 28, 68
  offset: 0, 0
  index: -1
55
  rotate: true
  xy: 483, 70
  size: 34, 80
  orig: 34, 80
  offset: 0, 0
  index: -1
57
  rotate: true
  xy: 805, 106
  size: 28, 68
  orig: 28, 68
  offset: 0, 0
  index: -1
60
  rotate: false
  xy: 969, 182
  size: 34, 72
  orig: 34, 72
  offset: 0, 0
  index: -1
62
  rotate: false
  xy: 897, 136
  size: 70, 118
  orig: 70, 118
  offset: 0, 0
  index: -1
64
  rotate: true
  xy: 2, 67
  size: 85, 289
  orig: 85, 289
  offset: 0, 0
  index: -1
65
  rotate: false
  xy: 483, 106
  size: 166, 148
  orig: 166, 148
  offset: 0, 0
  index: -1
7
  rotate: true
  xy: 1005, 201
  size: 53, 12
  orig: 53, 12
  offset: 0, 0
  index: -1
8
  rotate: false
  xy: 290, 20
  size: 52, 44
  orig: 52, 44
  offset: 0, 0
  index: -1
